<?xml version="1.0" encoding="UTF-8"?>
<svg data-name="Layer 1" height="462.27" viewBox="0 0 896.68 462.27" width="896.68" xmlns="http://www.w3.org/2000/svg">
  <path d="m1047.1 681.03h-894.29a1.1907 1.1907 0 0 1 0-2.3814h894.29a1.1907 1.1907 0 0 1 0 2.3814z"
        fill="#3f3d56" transform="translate(-151.66 -218.86)"/>
  <circle cx="280.35" cy="50.98" fill="#f2f2f2" r="6.4669"/>
  <circle cx="254.58" cy="50.98" fill="#f2f2f2" r="6.4669"/>
  <circle cx="228.81" cy="50.98" fill="#f2f2f2" r="6.4669"/>
  <circle cx="203.03" cy="50.98" fill="#f2f2f2" r="6.4669"/>
  <circle cx="280.35" cy="77.98" fill="#f2f2f2" r="6.4669"/>
  <circle cx="254.58" cy="77.98" fill="#f2f2f2" r="6.4669"/>
  <circle cx="228.81" cy="77.98" fill="#f2f2f2" r="6.4669"/>
  <circle cx="203.03" cy="77.98" fill="#f2f2f2" r="6.4669"/>
  <circle cx="280.35" cy="104.98" fill="#f2f2f2" r="6.4669"/>
  <circle cx="254.58" cy="104.98" fill="#f2f2f2" r="6.4669"/>
  <circle cx="228.81" cy="104.98" fill="#f2f2f2" r="6.4669"/>
  <circle cx="203.03" cy="104.98" fill="#f2f2f2" r="6.4669"/>
  <circle cx="280.35" cy="131.98" fill="#f2f2f2" r="6.4669"/>
  <circle cx="254.58" cy="131.98" fill="#f2f2f2" r="6.4669"/>
  <circle cx="228.81" cy="131.98" fill="#f2f2f2" r="6.4669"/>
  <circle cx="203.03" cy="131.98" fill="#f2f2f2" r="6.4669"/>
  <circle cx="280.35" cy="158.98" fill="#f2f2f2" r="6.4669"/>
  <circle cx="254.58" cy="158.98" fill="#f2f2f2" r="6.4669"/>
  <circle cx="228.81" cy="158.98" fill="#f2f2f2" r="6.4669"/>
  <circle cx="203.03" cy="158.98" fill="#f2f2f2" r="6.4669"/>
  <circle cx="280.35" cy="185.98" fill="#f2f2f2" r="6.4669"/>
  <circle cx="254.58" cy="185.98" fill="#f2f2f2" r="6.4669"/>
  <circle cx="228.81" cy="185.98" fill="#f2f2f2" r="6.4669"/>
  <circle cx="203.03" cy="185.98" fill="#f2f2f2" r="6.4669"/>
  <path d="m375.19 581.26v2a12.511 12.511 0 0 0 12.5 12.5h90a12.505 12.505 0 0 0 12.5-12.5v-2a12.41 12.41 0 0 0-2.9004-8 12.859 12.859 0 0 0-2.1099-2s-49.48-1.12-49.48-2.5h-48.01a12.517 12.517 0 0 0-12.5 12.5z"
        fill="#ccc"
        transform="translate(-151.66 -218.86)"/>
  <rect fill="#ccc" height="84" width="13" x="275.25" y="376.4"/>
  <path d="m476.91 678.81c0 1.4046-19.699 0.5433-44 0.5433s-44 0.86133-44-0.5433 19.699-12.543 44-12.543 44 11.139 44 12.543z"
        fill="#ccc"
        transform="translate(-151.66 -218.86)"/>
  <path d="m459.04 579.57a10.743 10.743 0 0 0-3.8071-16.027l-27.553-93.885-20.981 10.276 33.681 89.055a10.801 10.801 0 0 0 18.66 10.581z"
        fill="#a0616a"
        transform="translate(-151.66 -218.86)"/>
  <path d="m433.92 485.33-23.483 6.3568a4.8169 4.8169 0 0 1-6.0423-4.0855l-2.8383-24.087a13.377 13.377 0 0 1 25.846-6.9152l9.674 22.156a4.8169 4.8169 0 0 1-3.1563 6.5756z"
        fill="#5238df"
        transform="translate(-151.66 -218.86)"/>
  <polygon fill="#a0616a" points="313.52 450.1 325.78 450.1 331.61 418.3 313.51 418.3"/>
  <path d="m462.05 664.96 24.144-1e-3h1e-3a15.386 15.386 0 0 1 15.386 15.386v0.5l-39.531 0.00146z"
        fill="#2f2e41" transform="translate(-151.66 -218.86)"/>
  <path d="m479.41 651.91q-0.21423 0-0.43018-0.02051l-16.967-1.2354a4.4999 4.4999 0 0 1-3.8093-6.0293l22.707-51.015a3.4981 3.4981 0 0 0-0.19629-2.7988 3.4508 3.4508 0 0 0-2.2112-1.7598c-10.677-2.791-38.072-10.223-61.786-18.918-10.16-3.7256-16.559-9.1094-19.019-16.002-3.2432-9.0869 1.5547-17.374 1.7605-17.722l0.16089-0.27246 22.315 2.0283 24.191 2.0576 53.013 28.428a20.086 20.086 0 0 1 8.8186 25.784l-24.441 54.808a4.4969 4.4969 0 0 1-4.1062 2.667z"
        fill="#2f2e41"
        transform="translate(-151.66 -218.86)"/>
  <circle cx="274.15" cy="193.82" fill="#a0616a" r="24.561"/>
  <polygon fill="#a0616a" points="306.52 449.1 318.78 449.1 324.61 417.3 306.51 417.3"/>
  <path d="m455.05 663.96 24.144-1e-3h1e-3a15.386 15.386 0 0 1 15.386 15.386v0.5l-39.531 0.00146z"
        fill="#2f2e41" transform="translate(-151.66 -218.86)"/>
  <path d="m472.41 654.91q-0.21423 0-0.43018-0.02051l-16.967-1.2354a4.4999 4.4999 0 0 1-3.8093-6.0293l22.707-51.015a3.4981 3.4981 0 0 0-0.19629-2.7988 3.4508 3.4508 0 0 0-2.2112-1.7598c-10.677-2.791-38.072-10.223-61.786-18.918-10.16-3.7256-16.559-9.1094-19.019-16.002-3.2432-9.0869 1.5547-17.374 1.7605-17.722l0.16089-0.27246 22.315 2.0283 24.191 2.0576 53.013 28.428a20.086 20.086 0 0 1 8.8186 25.784l-24.441 54.808a4.4969 4.4969 0 0 1-4.1062 2.667z"
        fill="#2f2e41"
        transform="translate(-151.66 -218.86)"/>
  <path d="m433.39 451.17-26-9s-16.322 12.54-8.481 43.649a77.012 77.012 0 0 1-3.4001 48.32 49.778 49.778 0 0 1-2.6189 5.5312s29 35 56 9l-10.5-50.5s16.5-33.5-5-47z"
        fill="#2f2e41"
        transform="translate(-151.66 -218.86)"/>
  <path d="m428.86 438.08c-3.4956-5.2323-6.2543-12.488-2.4056-17.466 3.7991-4.9142 11.292-4.1902 17.111-6.3647 8.104-3.0287 12.804-12.549 11.338-21.076s-8.3103-15.594-16.464-18.486-17.348-1.9515-25.333 1.3789c-9.8293 4.0997-18.261 12.03-21.797 22.076s-1.6456 22.108 5.6893 29.83c7.8638 8.2784 20.206 10.485 31.623 10.351"
        fill="#2f2e41"
        transform="translate(-151.66 -218.86)"/>
  <path d="m406.02 393.44c-4.4048 3.5859-11.125 1.9932-15.854-1.1539s-8.5651-7.6282-13.681-10.096c-9.0192-4.35-19.924-1.4582-28.702 3.3601s-16.559 11.475-25.831 15.256-21.104 3.9681-28.125-3.1716a25.732 25.732 0 0 0 37.71 30.371c10.159-6.1884 15.771-19.164 27.166-22.579 6.3055-1.8901 13.076-0.36778 19.449 1.2811s13.018 3.4304 19.449 2.0267 12.447-7.1831 11.629-13.715z"
        fill="#2f2e41"
        transform="translate(-151.66 -218.86)"/>
  <path d="m485.97 624.87a167.51 167.51 0 0 1 0-50.975 4.3026 4.3026 0 0 1 4.2371-3.6057h39.873a4.2466 4.2466 0 0 1 3.3552 1.6262 4.3192 4.3192 0 0 1 0.8074 3.7046 102.33 102.33 0 0 0-3e-4 47.525 4.3181 4.3181 0 0 1-0.8071 3.7046 4.2466 4.2466 0 0 1-3.3552 1.6262h-39.873a4.3026 4.3026 0 0 1-4.2371-3.6057z"
        fill="#5238df"
        transform="translate(-151.66 -218.86)"/>
  <path d="m517.81 594.97h-20.924a3.0033 3.0033 0 0 1-3-3v-1.1719a3.0033 3.0033 0 0 1 3-3h20.924a3.0033 3.0033 0 0 1 3 3v1.1719a3.0033 3.0033 0 0 1-3 3z"
        fill="#fff"
        transform="translate(-151.66 -218.86)"/>
  <path d="m517.81 607.31h-20.924a3.0033 3.0033 0 0 1-3-3v-1.1724a3.0033 3.0033 0 0 1 3-3h20.924a3.0033 3.0033 0 0 1 3 3v1.1724a3.0033 3.0033 0 0 1-3 3z"
        fill="#fff"
        transform="translate(-151.66 -218.86)"/>
  <path d="m496.45 575.07a10.743 10.743 0 0 0-7.6905-14.567l-50.135-84.024-17.748 15.192 54.862 77.816a10.801 10.801 0 0 0 20.712 5.5837z"
        fill="#a0616a"
        transform="translate(-151.66 -218.86)"/>
  <path d="m448.59 490.1-21.15 12.022a4.8169 4.8169 0 0 1-6.8714-2.4464l-8.7663-22.614a13.377 13.377 0 0 1 23.298-13.153l14.903 19.036a4.8169 4.8169 0 0 1-1.4134 7.1557z"
        fill="#2f2e41"
        transform="translate(-151.66 -218.86)"/>
  <path d="m673.63 519.61h-406a6.5 6.5 0 1 0 0 13h11.5v141.5a6.5 6.5 0 0 0 13 0v-129.01l72.871 132.08a6.5 6.5 0 0 0 11.258-6.5l-76.176-138.07h348.05v0.08417l-76.129 137.98a6.4998 6.4998 0 1 0 11.258 6.5l64.871-117.58v114.51a6.5 6.5 0 0 0 13 0v-138.07l1.8911-3.4274h10.609a6.5 6.5 0 0 0 0-13z"
        fill="#3f3d56"
        transform="translate(-151.66 -218.86)"/>
  <rect fill="#ccc" height="7" rx="3.5" width="86" x="271.47" y="296.75"/>
  <path d="m558.63 522.61h-89a6.5074 6.5074 0 0 1-6.5-6.5v-49a6.5074 6.5074 0 0 1 6.5-6.5h89a6.5074 6.5074 0 0 1 6.5 6.5v49a6.5074 6.5074 0 0 1-6.5 6.5z"
        fill="#ccc"
        transform="translate(-151.66 -218.86)"/>
  <circle cx="362.47" cy="272.75" fill="#fff" r="6"/>
  <path d="m626.55 401.89v-175.5a7.53 7.53 0 0 1 7.5214-7.5214h138.73a7.53 7.53 0 0 1 7.5214 7.5214v175.5a7.53 7.53 0 0 1-7.5214 7.5214h-138.73a7.53 7.53 0 0 1-7.5214-7.5214zm7.5214-181.35a5.8566 5.8566 0 0 0-5.85 5.85v175.5a5.8566 5.8566 0 0 0 5.85 5.85h138.73a5.8566 5.8566 0 0 0 5.85-5.85v-175.5a5.8566 5.8566 0 0 0-5.85-5.85z"
        fill="#e6e6e6"
        transform="translate(-151.66 -218.86)"/>
  <path d="m711.22 299.46v-36.036a3.7649 3.7649 0 0 1 3.7607-3.7607h30.537a3.7649 3.7649 0 0 1 3.7607 3.7607v36.036a3.7649 3.7649 0 0 1-3.7607 3.7607h-30.537a3.7649 3.7649 0 0 1-3.7607-3.7607z"
        fill="#5238df"
        transform="translate(-151.66 -218.86)"/>
  <path d="m651.88 316.18v-36.036a3.7649 3.7649 0 0 1 3.7607-3.7607h30.537a3.7649 3.7649 0 0 1 3.7607 3.7607v36.036a3.7649 3.7649 0 0 1-3.7607 3.7607h-30.537a3.7649 3.7649 0 0 1-3.7607-3.7607z"
        fill="#ccc"
        transform="translate(-151.66 -218.86)"/>
  <path d="m699.52 367.15v-36.036a3.7649 3.7649 0 0 1 3.7607-3.7607h30.537a3.7649 3.7649 0 0 1 3.7607 3.7607v36.036a3.7649 3.7649 0 0 1-3.7607 3.7607h-30.537a3.7649 3.7649 0 0 1-3.7607-3.7607z"
        fill="#ff6584"
        transform="translate(-151.66 -218.86)"/>
  <circle cx="780.74" cy="11.82" fill="#f2f2f2" r="6.4669"/>
  <circle cx="780.74" cy="37.594" fill="#f2f2f2" r="6.4669"/>
  <circle cx="780.74" cy="63.367" fill="#f2f2f2" r="6.4669"/>
  <circle cx="780.74" cy="89.14" fill="#f2f2f2" r="6.4669"/>
  <circle cx="753.74" cy="11.82" fill="#f2f2f2" r="6.4669"/>
  <circle cx="753.74" cy="37.594" fill="#f2f2f2" r="6.4669"/>
  <circle cx="753.74" cy="63.367" fill="#f2f2f2" r="6.4669"/>
  <circle cx="753.74" cy="89.14" fill="#f2f2f2" r="6.4669"/>
  <circle cx="726.74" cy="11.82" fill="#f2f2f2" r="6.4669"/>
  <circle cx="726.74" cy="37.594" fill="#f2f2f2" r="6.4669"/>
  <circle cx="726.74" cy="63.367" fill="#f2f2f2" r="6.4669"/>
  <circle cx="726.74" cy="89.14" fill="#f2f2f2" r="6.4669"/>
  <circle cx="699.74" cy="11.82" fill="#f2f2f2" r="6.4669"/>
  <circle cx="699.74" cy="37.594" fill="#f2f2f2" r="6.4669"/>
  <circle cx="699.74" cy="63.367" fill="#f2f2f2" r="6.4669"/>
  <circle cx="699.74" cy="89.14" fill="#f2f2f2" r="6.4669"/>
  <circle cx="672.74" cy="11.82" fill="#f2f2f2" r="6.4669"/>
  <circle cx="672.74" cy="37.594" fill="#f2f2f2" r="6.4669"/>
  <circle cx="672.74" cy="63.367" fill="#f2f2f2" r="6.4669"/>
  <circle cx="672.74" cy="89.14" fill="#f2f2f2" r="6.4669"/>
  <circle cx="645.74" cy="11.82" fill="#f2f2f2" r="6.4669"/>
  <circle cx="645.74" cy="37.594" fill="#f2f2f2" r="6.4669"/>
  <circle cx="645.74" cy="63.367" fill="#f2f2f2" r="6.4669"/>
  <circle cx="645.74" cy="89.14" fill="#f2f2f2" r="6.4669"/>
  <path d="m823.46 460.12a11.003 11.003 0 0 1 7.7676-14.464 10.59 10.59 0 0 1 1.4512-0.23633l24.303-42.599-6.1367-10.542 15.275-11.785 11.687 16.232a11.149 11.149 0 0 1-0.26025 13.309l-33.365 42.714a10.507 10.507 0 0 1 0.31055 1.0347 11.003 11.003 0 0 1-9.3599 13.49 10.706 10.706 0 0 1-1.3467 0.08447 11.036 11.036 0 0 1-10.326-7.2373z"
        fill="#ffb8b8"
        transform="translate(-151.66 -218.86)"/>
  <polygon fill="#ffb8b8" points="624.38 450.89 612.12 450.89 606.29 403.6 624.38 403.6"/>
  <path d="m603.36 447.38h23.644v14.887h-38.531a14.887 14.887 0 0 1 14.887-14.887z" fill="#2f2e41"/>
  <polygon fill="#ffb8b8" points="725.38 450.89 713.12 450.89 707.29 403.6 725.38 403.6"/>
  <path d="m704.36 447.38h23.644v14.887h-38.531a14.887 14.887 0 0 1 14.887-14.887z" fill="#2f2e41"/>
  <path d="m869.52 382.79-27.525 10.459-6.72-18.667a11.168 11.168 0 0 1 5.002-13.5 11.168 11.168 0 0 1 14.262 2.7844z"
        fill="#5238df"
        transform="translate(-151.66 -218.86)"/>
  <path d="m777.1 631.45-23.084-5.2651a4.9864 4.9864 0 0 1-3.812-5.6191c9.2627-58.709 18.174-93.091 41.14-136.75 0.3208-0.814 3.9067-17.338 6.2471-28.285a4.9716 4.9716 0 0 1 4.2139-5.0239l43.044-6.6245a5.5703 5.5703 0 0 1 2.0215-0.30419l0.43017 0.08154-0.00537 0.42334c-0.00537 0.4375-0.44092 0.50439-0.60449 0.52978l-0.57227 0.08789a6.6845 6.6845 0 0 1 1.7749 1.2066c18.86 22.684 28.667 97.04 41.123 179.18a4.4842 4.4842 0 0 1-1.3037 3.6475 4.9334 4.9334 0 0 1-3.5376 1.6006l-27.501 0.67041a4.9823 4.9823 0 0 1-5.0352-4.2183l-18.524-107.05a3.9744 3.9744 0 0 0-7.4946-1.1558c-14.944 30.435-28.881 56.755-42.606 109.27a4.9525 4.9525 0 0 1-4.7925 3.7261 5.03 5.03 0 0 1-1.1211-0.12694z"
        fill="#2f2e41"
        transform="translate(-151.66 -218.86)"/>
  <path d="m799.51 456.75a4.9986 4.9986 0 0 1-2.0835-3.5488c-3.5254-32.91-1.0698-58.664 7.5059-78.735a24.992 24.992 0 0 1 16.567-14.18l22.25-1.123 0.11524 0.05567a26.005 26.005 0 0 1 14.219 27.588c-7.1562 18.863-13.148 38.503-8.5786 54.346a5.122 5.122 0 0 1-0.48388 3.9834 4.8841 4.8841 0 0 1-3.1157 2.3091l-42.378 10.081a4.9642 4.9642 0 0 1-4.0166-0.77734z"
        fill="#5238df"
        transform="translate(-151.66 -218.86)"/>
  <path d="m789.93 409.53-42.674-33.666a10.516 10.516 0 0 1-1.0361 0.30567 11.027 11.027 0 0 1-8.8178-1.6914 10.913 10.913 0 0 1-4.6265-7.7334 11.023 11.023 0 0 1 7.209-11.638 11.004 11.004 0 0 1 14.426 7.8374 10.573 10.573 0 0 1 0.229 1.4522l42.481 24.507 10.572-6.0864 11.711 15.332-16.414 11.699a10.942 10.942 0 0 1-13.06-0.31836z"
        fill="#ffb8b8"
        transform="translate(-151.66 -218.86)"/>
  <path d="m824.61 402.92-24.349-16.557 11.443-16.207a11.168 11.168 0 0 1 13.929-3.64 11.168 11.168 0 0 1 5.8944 13.283z"
        fill="#5238df"
        transform="translate(-151.66 -218.86)"/>
  <circle cx="684.66" cy="107.43" fill="#ffb8b8" r="24.561"/>
  <path d="m827.32 322.64c-6.3127 4.3205-14.601 8.7617-21.049 4.1608-4.2335-3.0211-5.5674-8.6154-3.8506-13.525 3.0873-8.8286 11.569-12.715 19.681-15.695 10.544-3.873 22.026-6.9542 32.911-4.1806s20.506 13.313 18.541 24.373c-1.5802 8.8942-9.97 16.295-8.779 25.25 1.1987 9.0122 11.334 13.756 20.281 15.367s18.96 2.1282 25.391 8.5552c8.2031 8.1988 6.1546 22.853-1.5641 31.51s-19.367 12.58-30.654 15.248c-14.955 3.5342-31.129 5.3916-45.332-0.47378s-25.256-21.654-21.141-36.46c1.7379-6.2538 5.8319-11.539 9.7885-16.685s7.9631-10.526 9.4724-16.839c1.2577-5.2607 0.32683-11.369-3.1618-15.315a4.437 4.437 0 0 1-0.5944-5.1864z"
        fill="#2f2e41"
        transform="translate(-151.66 -218.86)"/>
</svg>
